interactions:
- request:
    body: |
      {"data":{"attributes":{"name":"Test-Get_a_list_of_all_incident_teams_returns_OK_response-1699307974"},"type":"teams"}}
    form: {}
    headers:
      Accept:
      - application/json
      Content-Type:
      - application/json
    id: 0
    method: POST
    url: https://api.datadoghq.com/api/v2/teams
  response:
    body: '{"data":{"type":"teams","id":"7f1a6db2-da0d-51cd-bcfc-7462b9ce9ff8","attributes":{"name":"Test-Get_a_list_of_all_incident_teams_returns_OK_response-1699307974","created":"2023-11-06T21:59:34.424755+00:00","modified":"2023-11-06T21:59:34.424755+00:00"},"relationships":{"last_modified_by":{"data":{"type":"users","id":"3ad549bf-eba0-11e9-a77a-0705486660d0"}},"created_by":{"data":{"type":"users","id":"3ad549bf-eba0-11e9-a77a-0705486660d0"}}}},"included":[{"type":"users","id":"3ad549bf-eba0-11e9-a77a-0705486660d0","attributes":{"name":null,"handle":"frog@datadoghq.com","created_at":"2019-10-02T08:15:39.795051+00:00","modified_at":"2020-06-15T12:33:12.884459+00:00","email":"frog@datadoghq.com","icon":"https://secure.gravatar.com/avatar/28a16dfe36e73b60c1d55872cb0f1172?s=48&d=retro","title":null,"verified":true,"service_account":false,"disabled":false,"allowed_login_methods":[],"status":"Active"},"relationships":{"org":{"data":{"type":"orgs","id":"4dee724d-00cc-11ea-a77b-570c9d03c6c5"}}}}]}

      '
    code: 201
    duration: 0ms
    headers:
      Content-Type:
      - application/json
    status: 201 Created
- request:
    body: ''
    form: {}
    headers:
      Accept:
      - application/json
    id: 1
    method: GET
    url: https://api.datadoghq.com/api/v2/teams?filter=Test-Get_a_list_of_all_incident_teams_returns_OK_response-1699307974
  response:
    body: '{"data":[{"type":"teams","id":"7f1a6db2-da0d-51cd-bcfc-7462b9ce9ff8","attributes":{"name":"Test-Get_a_list_of_all_incident_teams_returns_OK_response-1699307974","created":"2023-11-06T21:59:34.424755+00:00","modified":"2023-11-06T21:59:34.424755+00:00"},"relationships":{"last_modified_by":{"data":{"type":"users","id":"3ad549bf-eba0-11e9-a77a-0705486660d0"}},"created_by":{"data":{"type":"users","id":"3ad549bf-eba0-11e9-a77a-0705486660d0"}}}}],"meta":{"pagination":{"offset":0,"next_offset":1,"size":1,"total":3852},"sort":"ASC","total":3852}}

      '
    code: 200
    duration: 0ms
    headers:
      Content-Type:
      - application/json
    status: 200 OK
- request:
    body: ''
    form: {}
    headers:
      Accept:
      - '*/*'
    id: 2
    method: DELETE
    url: https://api.datadoghq.com/api/v2/teams/7f1a6db2-da0d-51cd-bcfc-7462b9ce9ff8
  response:
    body: ''
    code: 204
    duration: 0ms
    headers:
      Content-Type:
      - text/html; charset=utf-8
    status: 204 No Content
version: 2
