interactions:
- request:
    body: |
      {"data":{"attributes":{"name":"Test-Get_a_list_of_all_incident_services_returns_OK_response-1618491695"},"type":"services"}}
    form: {}
    headers:
      Accept:
      - application/json, */*;q=0.8
      Connection:
      - close
      Content-Length:
      - '124'
      Content-Type:
      - application/json
      Host:
      - api.datadoghq.com
      User-Agent:
      - datadog-api-client-typescript/0.1.0 (node 15.11.0; os Darwin; arch x64)
      X-Datadog-Parent-Id:
      - '5095942047695828255'
      X-Datadog-Trace-Id:
      - '5095942047695828255'
    method: POST
    url: https://api.datadoghq.com/api/v2/services
  response:
    body: '{"included":[{"type":"users","id":"3ad549bf-eba0-11e9-a77a-0705486660d0","attributes":{"name":null,"handle":"frog@datadoghq.com","created_at":"2019-10-02T08:15:39.795051+00:00","modified_at":"2020-06-15T12:33:12.884459+00:00","email":"frog@datadoghq.com","icon":"https://secure.gravatar.com/avatar/28a16dfe36e73b60c1d55872cb0f1172?s=48&d=retro","title":null,"verified":true,"service_account":false,"disabled":false,"allowed_login_methods":[],"status":"Active"},"relationships":{"org":{"data":{"type":"orgs","id":"4dee724d-00cc-11ea-a77b-570c9d03c6c5"}}}}],"data":{"type":"services","id":"6fc98fcf-38df-5de5-8350-03be88d21413","attributes":{"name":"Test-Get_a_list_of_all_incident_services_returns_OK_response-1618491695","created":"2021-04-15T13:01:35.360635+00:00","modified":"2021-04-15T13:01:35.360635+00:00"},"relationships":{"last_modified_by":{"data":{"type":"users","id":"3ad549bf-eba0-11e9-a77a-0705486660d0"}},"created_by":{"data":{"type":"users","id":"3ad549bf-eba0-11e9-a77a-0705486660d0"}}}}}'
    code: 201
    duration: ''
    headers:
      Cache-Control:
      - no-cache
      Connection:
      - close
      Content-Length:
      - '1004'
      Content-Security-Policy:
      - frame-ancestors 'self'; report-uri https://api.datadoghq.com/csp-report
      Content-Type:
      - application/json
      Date:
      - Thu, 15 Apr 2021 13:01:35 GMT
      Pragma:
      - no-cache
      Strict-Transport-Security:
      - max-age=15724800;
      X-Content-Type-Options:
      - nosniff
      X-Dd-Version:
      - '35.4318655'
      X-Frame-Options:
      - SAMEORIGIN
      X-Ratelimit-Limit:
      - '100'
      X-Ratelimit-Period:
      - '60'
      X-Ratelimit-Remaining:
      - '97'
      X-Ratelimit-Reset:
      - '25'
    status: 201 Created
- request:
    body: ''
    form: {}
    headers:
      Accept:
      - application/json, */*;q=0.8
      Connection:
      - close
      Host:
      - api.datadoghq.com
      User-Agent:
      - datadog-api-client-typescript/0.1.0 (node 15.11.0; os Darwin; arch x64)
      X-Datadog-Parent-Id:
      - '5095942047695828255'
      X-Datadog-Trace-Id:
      - '5095942047695828255'
    method: GET
    url: https://api.datadoghq.com/api/v2/services?filter=Test-Get_a_list_of_all_incident_services_returns_OK_response-1618491695
  response:
    body: '{"meta":{"sort":"ASC","pagination":{"total":7459,"size":1,"next_offset":1,"offset":0},"total":7459},"data":[{"type":"services","id":"6fc98fcf-38df-5de5-8350-03be88d21413","attributes":{"name":"Test-Get_a_list_of_all_incident_services_returns_OK_response-1618491695","created":"2021-04-15T13:01:35.360635+00:00","modified":"2021-04-15T13:01:35.360635+00:00"},"relationships":{"last_modified_by":{"data":{"type":"users","id":"3ad549bf-eba0-11e9-a77a-0705486660d0"}},"created_by":{"data":{"type":"users","id":"3ad549bf-eba0-11e9-a77a-0705486660d0"}}}}]}'
    code: 200
    duration: ''
    headers:
      Cache-Control:
      - no-cache
      Connection:
      - close
      Content-Length:
      - '550'
      Content-Security-Policy:
      - frame-ancestors 'self'; report-uri https://api.datadoghq.com/csp-report
      Content-Type:
      - application/json
      Date:
      - Thu, 15 Apr 2021 13:01:36 GMT
      Pragma:
      - no-cache
      Strict-Transport-Security:
      - max-age=15724800;
      Vary:
      - Accept-Encoding
      X-Content-Type-Options:
      - nosniff
      X-Dd-Version:
      - '35.4318655'
      X-Frame-Options:
      - SAMEORIGIN
      X-Ratelimit-Limit:
      - '100'
      X-Ratelimit-Period:
      - '60'
      X-Ratelimit-Remaining:
      - '99'
      X-Ratelimit-Reset:
      - '25'
    status: 200 OK
- request:
    body: ''
    form: {}
    headers:
      Accept:
      - application/json, */*;q=0.8
      Connection:
      - close
      Host:
      - api.datadoghq.com
      User-Agent:
      - datadog-api-client-typescript/0.1.0 (node 15.11.0; os Darwin; arch x64)
      X-Datadog-Parent-Id:
      - '5095942047695828255'
      X-Datadog-Trace-Id:
      - '5095942047695828255'
    method: DELETE
    url: https://api.datadoghq.com/api/v2/services/6fc98fcf-38df-5de5-8350-03be88d21413
  response:
    body: ''
    code: 204
    duration: ''
    headers:
      Cache-Control:
      - no-cache
      Connection:
      - close
      Content-Length:
      - '0'
      Content-Security-Policy:
      - frame-ancestors 'self'; report-uri https://api.datadoghq.com/csp-report
      Content-Type:
      - application/json
      Date:
      - Thu, 15 Apr 2021 13:01:36 GMT
      Pragma:
      - no-cache
      Strict-Transport-Security:
      - max-age=15724800;
      X-Content-Type-Options:
      - nosniff
      X-Dd-Version:
      - '35.4318655'
      X-Frame-Options:
      - SAMEORIGIN
      X-Ratelimit-Limit:
      - '100'
      X-Ratelimit-Period:
      - '60'
      X-Ratelimit-Remaining:
      - '96'
      X-Ratelimit-Reset:
      - '24'
    status: 204 No Content
version: 1
