interactions:
- request:
    body: ''
    form: {}
    headers:
      Accept:
      - application/json
    method: GET
    url: https://api.datadoghq.com/api/v1/monitor/search
  response:
    body: '{"counts":{"status":[{"count":96,"name":"No Data"},{"count":65,"name":"Alert"},{"count":38,"name":"OK"}],"muted":[{"count":182,"name":false},{"count":17,"name":true}],"tag":[{"count":88,"name":"probe_dc:aws:us-east-2"},{"count":77,"name":"check_status:live"},{"count":73,"name":"testing:api"},{"count":50,"name":"check_type:api"},{"count":46,"name":"env:ci"},{"count":17,"name":"check_status:paused"},{"count":13,"name":"check_type:browser"},{"count":13,"name":"testing:browser"},{"count":11,"name":"foo:bar"},{"count":9,"name":"check_type:api-multi"},{"count":9,"name":"check_type:api-udp"},{"count":9,"name":"check_type:api-websocket"},{"count":6,"name":"app:webserver"},{"count":6,"name":"baz"},{"count":6,"name":"frontend"},{"count":6,"name":"probe_dc:aws:eu-central-1"},{"count":4,"name":"environment:test"},{"count":4,"name":"generator:slops"},{"count":4,"name":"release:e6a2686"},{"count":4,"name":"sli:latency"},{"count":4,"name":"systemid:splunk"},{"count":4,"name":"team:developer_insights"},{"count":3,"name":"client:go"},{"count":3,"name":"env:test"},{"count":3,"name":"foo"},{"count":3,"name":"slotype:alb"},{"count":3,"name":"test"},{"count":3,"name":"test:examplecreateacipipelinesmonitorreturnsokresponse"},{"count":2,"name":"bar:baz"},{"count":2,"name":"check_type:api-tcp"},{"count":2,"name":"testing:api-tcp"},{"count":1,"name":"check_type:api-dns"},{"count":1,"name":"check_type:api-ssl"},{"count":1,"name":"log"},{"count":1,"name":"multistep"},{"count":1,"name":"slotype:elb"},{"count":1,"name":"terraform"},{"count":1,"name":"test:examplecheckifamonitorcanbedeletedreturnsokresponse1637578686"},{"count":1,"name":"test:examplecheckifamonitorcanbedeletedreturnsokresponse1637578811"},{"count":1,"name":"test:examplecheckifamonitorcanbedeletedreturnsokresponse1637578841"},{"count":1,"name":"test:examplecreateamonitorreturnsokresponse"},{"count":1,"name":"test:examplegetamonitorsdetailsreturnsokresponse1640441498"},{"count":1,"name":"test:examplescheduleamonitordowntimereturnsokresponse1640441496"},{"count":1,"name":"test:testcreateacipipelinesmonitorreturnsokresponse1640105320"},{"count":1,"name":"test:testcreateacipipelinesmonitorreturnsokresponse1640114122"},{"count":1,"name":"test:testcreateacipipelinesmonitorreturnsokresponse1640114223"},{"count":1,"name":"test:testcreateacipipelinesmonitorreturnsokresponse1640114238"},{"count":1,"name":"test:testcreateacipipelinesmonitorreturnsokresponse1640114278"},{"count":1,"name":"test:testcreateacipipelinesmonitorreturnsokresponse1640114289"},{"count":1,"name":"test:testcreateacipipelinesmonitorreturnsokresponse1640114357"},{"count":1,"name":"test:testcreateacipipelinesmonitorreturnsokresponse1640114432"},{"count":1,"name":"test:testcreateacipipelinesmonitorreturnsokresponse1640114509"},{"count":1,"name":"test:testcreateacipipelinesmonitorreturnsokresponse1640114535"},{"count":1,"name":"test:testcreateacipipelinesmonitorreturnsokresponse1640114567"},{"count":1,"name":"test:testcreateacipipelinesmonitorreturnsokresponse1640115169"},{"count":1,"name":"test:testcreateamonitorreturnsokresponse1639067826"},{"count":1,"name":"test:testcreateamonitorreturnsokresponse1639072243"},{"count":1,"name":"test:testcreateamonitorreturnsokresponse1640112911"},{"count":1,"name":"test:testcreateanewdashboardwithalertvaluewidget1641382634"},{"count":1,"name":"test:testgocheckifamonitorcanbedeletedreturnsokresponse1639045979"},{"count":1,"name":"test:testgocreateamonitorreturnsokresponse1639045979"},{"count":1,"name":"test:testgoeditamonitorreturnsokresponse1639046265"},{"count":1,"name":"test:testgogetamonitorsdetailsreturnsokresponse1639046265"},{"count":1,"name":"test:testgoscheduleamonitordowntimereturnsokresponse1639045977"},{"count":1,"name":"test:testpythoncheckifamonitorcanbedeletedreturnsokresponse1638987034"},{"count":1,"name":"test:testpythoncheckifamonitorcanbedeletedreturnsokresponse1639137875"},{"count":1,"name":"test:testpythoncreateamonitorreturnsokresponse1639137882"},{"count":1,"name":"test:testpythondeleteamonitorreturnsokresponse1638987038"},{"count":1,"name":"test:testpythoneditamonitorreturnsokresponse1638926914"},{"count":1,"name":"test:testpythoneditamonitorreturnsokresponse1638987036"},{"count":1,"name":"test:testpythongetamonitorsdetailsreturnsokresponse1638987027"},{"count":1,"name":"test:testpythonscheduleamonitordowntimereturnsokresponse1638987043"},{"count":1,"name":"test:testscheduleamonitordowntimereturnsokresponse1640112907"},{"count":1,"name":"test:testtypescriptcreateamonitorreturnsokresponse1638875400"},{"count":1,"name":"test:testtypescriptcreateamonitorreturnsokresponse1640111495"},{"count":1,"name":"test:testtypescriptcreateamonitorreturnsokresponse1640112727"},{"count":1,"name":"test:testtypescripteditamonitorreturnsokresponse1639138007"},{"count":1,"name":"test:testtypescriptgetamonitorsdetailsreturnsokresponse1639138007"},{"count":1,"name":"test:testtypescriptscheduleamonitordowntimereturnsokresponse1640111492"},{"count":1,"name":"test:testtypescriptscheduleamonitordowntimereturnsokresponse1640112725"}],"type":[{"count":94,"name":"synthetics"},{"count":40,"name":"log"},{"count":28,"name":"metric"},{"count":16,"name":"integration"},{"count":15,"name":"ci-pipelines"},{"count":4,"name":"custom"},{"count":1,"name":"anomaly"},{"count":1,"name":"composite"}]},"monitors":[{"status":"No
      Data","scopes":[],"classification":"synthetics","creator":{"handle":"slavek.kabrda@datadoghq.com","id":1379826,"name":"Slavek
      Kabrda"},"metrics":[],"notifications":[{"handle":"pagerduty","name":"Pagerduty"}],"muted_until_ts":null,"query":"no_query","id":25641098,"last_triggered_ts":null,"name":"[Synthetics]
      tf-TestAccDatadogSyntheticsSSLTest_Updated-31891-1605197692-updated","tags":["foo:bar","env:test","check_type:api-ssl","check_status:live","probe_dc:aws:eu-central-1","foo"],"org_id":321813,"priority":null,"overall_state_modified":null,"restricted_roles":[],"type":"synthetics
      alert"},{"status":"No Data","scopes":["host:host0"],"classification":"metric","creator":{"handle":"nicholas.muesch@datadoghq.com","id":1379811,"name":"Nicholas
      Muesch"},"metrics":["system.net.bytes_rcvd"],"notifications":[],"muted_until_ts":null,"query":"avg(last_5m):sum:system.net.bytes_rcvd{host:host0}
      > 100","id":20332095,"last_triggered_ts":null,"name":"java-listMonitorsTest-20205-1595411987-2","tags":[],"org_id":321813,"priority":null,"overall_state_modified":null,"restricted_roles":[],"type":"metric
      alert"},{"status":"No Data","scopes":[],"classification":"synthetics","creator":{"handle":"nicholas.muesch@datadoghq.com","id":1379811,"name":"Nicholas
      Muesch"},"metrics":[],"notifications":[],"muted_until_ts":null,"query":"no_query","id":20314950,"last_triggered_ts":null,"name":"[Synthetics]
      java-testSyntheticsMultipleTestsOperations-20175-1595364791-api","tags":["testing:api","check_type:api","probe_dc:aws:us-east-2","check_status:live"],"org_id":321813,"priority":null,"overall_state_modified":null,"restricted_roles":[],"type":"synthetics
      alert"},{"status":"Alert","scopes":[],"classification":"synthetics","creator":{"handle":"frog@datadoghq.com","name":"frog@datadoghq.com","id":{"handle":"frog@datadoghq.com","id":1445416,"name":null}},"metrics":[],"notifications":[],"muted_until_ts":null,"query":"no_query","id":59701958,"last_triggered_ts":1641411818,"name":"Example-Create_an_API_test_returns_OK_Returns_the_created_test_details_response_1641411729","tags":["testing:api","check_type:api","probe_dc:aws:us-east-2","check_status:live"],"org_id":321813,"priority":5,"overall_state_modified":1641411819,"restricted_roles":[],"type":"synthetics
      alert"},{"status":"Alert","scopes":[],"classification":"synthetics","creator":{"handle":"frog@datadoghq.com","name":"frog@datadoghq.com","id":{"handle":"frog@datadoghq.com","id":1445416,"name":null}},"metrics":[],"notifications":[],"muted_until_ts":null,"query":"no_query","id":59586255,"last_triggered_ts":1641339795,"name":"Example-Create_an_API_test_returns_OK_Returns_the_created_test_details_response_1641339729","tags":["testing:api","check_type:api","probe_dc:aws:us-east-2","check_status:live"],"org_id":321813,"priority":5,"overall_state_modified":1641383895,"restricted_roles":[],"type":"synthetics
      alert"},{"status":"OK","scopes":[],"classification":"log","creator":{"handle":"9919ec9b-ebc7-49ee-8dc8-03626e717cca","id":2320499,"name":"CI
      Account"},"metrics":[],"notifications":[{"handle":"hipchat-channel","name":"hipchat-channel"}],"muted_until_ts":null,"query":"logs(\"service:foo
      AND type:error\").index(\"main\").rollup(\"count\").by(\"source\").last(\"5m\")
      > 2","id":56889922,"last_triggered_ts":null,"name":"Test-Python-Edit_a_monitor_returns_OK_response-1638926914","tags":["test:testpythoneditamonitorreturnsokresponse1638926914","env:ci"],"org_id":321813,"priority":3,"overall_state_modified":1638927063,"restricted_roles":[],"type":"log
      alert"},{"status":"OK","scopes":["*"],"classification":"metric","creator":{"handle":"frog@datadoghq.com","name":"frog@datadoghq.com","id":{"handle":"frog@datadoghq.com","id":1445416,"name":null}},"metrics":["synthetics.pl.worker.remaining_slots"],"notifications":[],"muted_until_ts":null,"query":"avg(last_30m):avg:synthetics.pl.worker.remaining_slots{*}
      by {location_id} < 1.5","id":52529358,"last_triggered_ts":null,"name":"[Synthetic
      Private Locations] {{location_id.name}} is underprovisioned","tags":[],"org_id":321813,"priority":null,"overall_state_modified":1635848008,"restricted_roles":[],"type":"metric
      alert"},{"status":"No Data","scopes":["host:foo","environment:foo"],"classification":"integration","creator":{"handle":"frog@datadoghq.com","name":"frog@datadoghq.com","id":{"handle":"frog@datadoghq.com","id":1445416,"name":null}},"metrics":["aws.ec2.cpu"],"notifications":[{"handle":"hipchat-channel","name":"hipchat-channel"}],"muted_until_ts":null,"query":"avg(last_1h):avg:aws.ec2.cpu{environment:foo,host:foo}
      by {host} > 4","id":35679537,"last_triggered_ts":null,"name":"Name for monitor
      foo","tags":["foo:bar","baz"],"org_id":321813,"priority":null,"overall_state_modified":1621426290,"restricted_roles":[],"type":"query
      alert"},{"status":"No Data","scopes":[],"classification":"synthetics","creator":{"handle":"9919ec9b-ebc7-49ee-8dc8-03626e717cca","id":2320499,"name":"CI
      Account"},"metrics":[],"notifications":[{"handle":"datadog.user","name":"datadog.user"}],"muted_until_ts":null,"query":"no_query","id":59417761,"last_triggered_ts":null,"name":"[Synthetics]
      tf-TestAccDatadogSyntheticsDNSTest_Basic-85865-1641311522","tags":["check_status:paused","check_type:api-dns","foo:bar","baz","probe_dc:aws:eu-central-1"],"org_id":321813,"priority":null,"overall_state_modified":1641311582,"restricted_roles":[],"type":"synthetics
      alert"},{"status":"No Data","scopes":["host:host0"],"classification":"metric","creator":{"handle":"9919ec9b-ebc7-49ee-8dc8-03626e717cca","id":2320499,"name":"CI
      Account"},"metrics":["system.net.bytes_rcvd"],"notifications":[],"muted_until_ts":null,"query":"avg(last_5m):sum:system.net.bytes_rcvd{host:host0}
      > 100","id":35686767,"last_triggered_ts":null,"name":"`avg(last_5m):sum:system.net.bytes_rcvd{host:host0}
      > 100`","tags":[],"org_id":321813,"priority":null,"overall_state_modified":1621436815,"restricted_roles":[],"type":"query
      alert"},{"status":"No Data","scopes":[],"classification":"ci-pipelines","creator":{"handle":"frog@datadoghq.com","name":"frog@datadoghq.com","id":{"handle":"frog@datadoghq.com","id":1445416,"name":null}},"metrics":[],"notifications":[{"handle":"hipchat-channel","name":"hipchat-channel"}],"muted_until_ts":null,"query":"ci-pipelines(\"ci_level:pipeline
      @git.branch:staging* @ci.status:error\").rollup(\"count\").by(\"@git.branch,@ci.pipeline.name\").last(\"5m\")
      >= 1","id":59136642,"last_triggered_ts":null,"name":"Example-Create_a_ci_pipelines_monitor_returns_OK_response","tags":["env:ci","test:examplecreateacipipelinesmonitorreturnsokresponse"],"org_id":321813,"priority":3,"overall_state_modified":1641203402,"restricted_roles":[],"type":"ci-pipelines
      alert"},{"status":"No Data","scopes":[],"classification":"log","creator":{"handle":"frog@datadoghq.com","name":"frog@datadoghq.com","id":{"handle":"frog@datadoghq.com","id":1445416,"name":null}},"metrics":[],"notifications":[{"handle":"hipchat-channel","name":"hipchat-channel"}],"muted_until_ts":null,"query":"logs(\"service:foo
      AND type:error\").index(\"main\").rollup(\"count\").by(\"source\").last(\"5m\")
      > 2","id":57056222,"last_triggered_ts":null,"name":"Test-Create_a_monitor_returns_OK_response-1639067826","tags":["env:ci","test:testcreateamonitorreturnsokresponse1639067826"],"org_id":321813,"priority":3,"overall_state_modified":1639067987,"restricted_roles":[],"type":"log
      alert"},{"status":"Alert","scopes":[],"classification":"synthetics","creator":{"handle":"frog@datadoghq.com","name":"frog@datadoghq.com","id":{"handle":"frog@datadoghq.com","id":1445416,"name":null}},"metrics":[],"notifications":[],"muted_until_ts":null,"query":"no_query","id":59586284,"last_triggered_ts":1641339824,"name":"Example-Trigger_Synthetics_tests_returns_OK_response_1641339731","tags":["testing:api","check_type:api","probe_dc:aws:us-east-2","check_status:live"],"org_id":321813,"priority":5,"overall_state_modified":1641383924,"restricted_roles":[],"type":"synthetics
      alert"},{"status":"No Data","scopes":[],"classification":"synthetics","creator":{"handle":"frog@datadoghq.com","name":"frog@datadoghq.com","id":{"handle":"frog@datadoghq.com","id":1445416,"name":null}},"metrics":[],"notifications":[],"muted_until_ts":null,"query":"no_query","id":59702023,"last_triggered_ts":null,"name":"[Synthetics]
      Example-Create_a_browser_test_returns_OK_Returns_the_created_test_details_response_1641411734","tags":["check_status:paused","probe_dc:aws:us-east-2","testing:browser","check_type:browser"],"org_id":321813,"priority":null,"overall_state_modified":1641411825,"restricted_roles":[],"type":"synthetics
      alert"},{"status":"OK","scopes":[],"classification":"log","creator":{"handle":"9919ec9b-ebc7-49ee-8dc8-03626e717cca","id":2320499,"name":"CI
      Account"},"metrics":[],"notifications":[{"handle":"hipchat-channel","name":"hipchat-channel"}],"muted_until_ts":null,"query":"logs(\"service:foo
      AND type:error\").index(\"main\").rollup(\"count\").by(\"source\").last(\"5m\")
      > 2","id":56957481,"last_triggered_ts":null,"name":"Test-Python-Schedule_a_monitor_downtime_returns_OK_response-1638987043","tags":["test:testpythonscheduleamonitordowntimereturnsokresponse1638987043","env:ci"],"org_id":321813,"priority":3,"overall_state_modified":1638987188,"restricted_roles":[],"type":"log
      alert"},{"status":"OK","scopes":[],"classification":"log","creator":{"handle":"9919ec9b-ebc7-49ee-8dc8-03626e717cca","id":2320499,"name":"CI
      Account"},"metrics":[],"notifications":[{"handle":"hipchat-channel","name":"hipchat-channel"}],"muted_until_ts":null,"query":"logs(\"service:foo
      AND type:error\").index(\"main\").rollup(\"count\").by(\"source\").last(\"5m\")
      > 2","id":57134512,"last_triggered_ts":null,"name":"Test-Typescript-Edit_a_monitor_returns_OK_response-1639138007","tags":["test:testtypescripteditamonitorreturnsokresponse1639138007","env:ci"],"org_id":321813,"priority":3,"overall_state_modified":1639138183,"restricted_roles":[],"type":"log
      alert"},{"status":"OK","scopes":[],"classification":"log","creator":{"handle":"frog@datadoghq.com","name":"frog@datadoghq.com","id":{"handle":"frog@datadoghq.com","id":1445416,"name":null}},"metrics":[],"notifications":[{"handle":"hipchat-channel","name":"hipchat-channel"}],"muted_until_ts":null,"query":"logs(\"service:foo
      AND type:error\").index(\"main\").rollup(\"count\").by(\"source\").last(\"5m\")
      > 2","id":55356159,"last_triggered_ts":null,"name":"Example-Check_if_a_monitor_can_be_deleted_returns_OK_response_1637578811","tags":["env:ci","test:examplecheckifamonitorcanbedeletedreturnsokresponse1637578811"],"org_id":321813,"priority":3,"overall_state_modified":1637579006,"restricted_roles":[],"type":"log
      alert"},{"status":"No Data","scopes":[],"classification":"ci-pipelines","creator":{"handle":"frog@datadoghq.com","name":"frog@datadoghq.com","id":{"handle":"frog@datadoghq.com","id":1445416,"name":null}},"metrics":[],"notifications":[{"handle":"hipchat-channel","name":"hipchat-channel"}],"muted_until_ts":null,"query":"ci-pipelines(\"ci_level:pipeline
      @git.branch:staging* @ci.status:error\").rollup(\"count\").by(\"@git.branch,@ci.pipeline.name\").last(\"5m\")
      >= 1","id":58631108,"last_triggered_ts":null,"name":"Test-Create_a_ci_pipelines_monitor_returns_OK_response-1640114238","tags":["test:testcreateacipipelinesmonitorreturnsokresponse1640114238","env:ci"],"org_id":321813,"priority":3,"overall_state_modified":1640114311,"restricted_roles":[],"type":"ci-pipelines
      alert"},{"status":"Alert","scopes":[],"classification":"synthetics","creator":{"handle":"frog@datadoghq.com","name":"frog@datadoghq.com","id":{"handle":"frog@datadoghq.com","id":1445416,"name":null}},"metrics":[],"notifications":[],"muted_until_ts":null,"query":"no_query","id":59586280,"last_triggered_ts":1641339820,"name":"Example-Get_a_synthetics_monitor_s_details_1641339731","tags":["testing:api","check_type:api","probe_dc:aws:us-east-2","check_status:live"],"org_id":321813,"priority":5,"overall_state_modified":1641383921,"restricted_roles":[],"type":"synthetics
      alert"},{"status":"Alert","scopes":[],"classification":"synthetics","creator":{"handle":"frog@datadoghq.com","name":"frog@datadoghq.com","id":{"handle":"frog@datadoghq.com","id":1445416,"name":null}},"metrics":[],"notifications":[],"muted_until_ts":null,"query":"no_query","id":59771265,"last_triggered_ts":1641426225,"name":"Example-Get_a_synthetics_monitor_s_details_1641426133","tags":["testing:api","check_type:api","probe_dc:aws:us-east-2","check_status:live"],"org_id":321813,"priority":5,"overall_state_modified":1641426226,"restricted_roles":[],"type":"synthetics
      alert"},{"status":"No Data","scopes":[],"classification":"synthetics","creator":{"handle":"nicholas.muesch@datadoghq.com","id":1379811,"name":"Nicholas
      Muesch"},"metrics":[],"notifications":[],"muted_until_ts":null,"query":"no_query","id":25721938,"last_triggered_ts":null,"name":"[Synthetics]
      java-testSyntheticsMultipleTestsOperations-32166-1605317563-browser","tags":["check_status:paused","probe_dc:aws:us-east-2","testing:browser","check_type:browser"],"org_id":321813,"priority":null,"overall_state_modified":null,"restricted_roles":[],"type":"synthetics
      alert"},{"status":"Alert","scopes":[],"classification":"synthetics","creator":{"handle":"frog@datadoghq.com","name":"frog@datadoghq.com","id":{"handle":"frog@datadoghq.com","id":1445416,"name":null}},"metrics":[],"notifications":[],"muted_until_ts":null,"query":"no_query","id":59640593,"last_triggered_ts":1641368633,"name":"Test-TestSyntheticsAPITestLifecycle-1623076664","tags":["testing:api","check_type:api","probe_dc:aws:us-east-2","check_status:live"],"org_id":321813,"priority":5,"overall_state_modified":1641383933,"restricted_roles":[],"type":"synthetics
      alert"},{"status":"Alert","scopes":[],"classification":"synthetics","creator":{"handle":"frog@datadoghq.com","name":"frog@datadoghq.com","id":{"handle":"frog@datadoghq.com","id":1445416,"name":null}},"metrics":[],"notifications":[],"muted_until_ts":null,"query":"no_query","id":59417123,"last_triggered_ts":1641311003,"name":"Example-Create_an_API_test_with_WEBSOCKET_subtype_returns_OK_Returns_the_created_test_details_response_1641310927","tags":["testing:api","check_type:api-websocket","probe_dc:aws:us-east-2","check_status:live"],"org_id":321813,"priority":5,"overall_state_modified":1641383903,"restricted_roles":[],"type":"synthetics
      alert"},{"status":"Alert","scopes":[],"classification":"synthetics","creator":{"handle":"frog@datadoghq.com","name":"frog@datadoghq.com","id":{"handle":"frog@datadoghq.com","id":1445416,"name":null}},"metrics":[],"notifications":[],"muted_until_ts":null,"query":"no_query","id":59653156,"last_triggered_ts":1641382576,"name":"Test-Edit_an_API_test_returns_OK_response-1641382542","tags":["testing:api","check_type:api","probe_dc:aws:us-east-2","check_status:live"],"org_id":321813,"priority":5,"overall_state_modified":1641383896,"restricted_roles":[],"type":"synthetics
      alert"},{"status":"OK","scopes":["*"],"classification":"custom","creator":{"handle":"9919ec9b-ebc7-49ee-8dc8-03626e717cca","id":2320499,"name":"CI
      Account"},"metrics":["ntp.in_sync"],"notifications":[],"muted_until_ts":null,"query":"\"ntp.in_sync\".over(\"*\").last(2).count_by_status()","id":56886190,"last_triggered_ts":null,"name":"tf-TestAccDatadogMonitorJSONBasic-83207-1638923106","tags":[],"org_id":321813,"priority":null,"overall_state_modified":1641318730,"restricted_roles":[],"type":"service
      check"},{"status":"OK","scopes":[],"classification":"log","creator":{"handle":"9919ec9b-ebc7-49ee-8dc8-03626e717cca","id":2320499,"name":"CI
      Account"},"metrics":[],"notifications":[{"handle":"hipchat-channel","name":"hipchat-channel"}],"muted_until_ts":null,"query":"logs(\"service:foo
      AND type:error\").index(\"main\").rollup(\"count\").by(\"source\").last(\"5m\")
      > 2","id":57134518,"last_triggered_ts":null,"name":"Test-Typescript-Get_a_monitor_s_details_returns_OK_response-1639138007","tags":["env:ci","test:testtypescriptgetamonitorsdetailsreturnsokresponse1639138007"],"org_id":321813,"priority":3,"overall_state_modified":1639138176,"restricted_roles":[],"type":"log
      alert"},{"status":"No Data","scopes":["host:host0"],"classification":"metric","creator":{"handle":"9919ec9b-ebc7-49ee-8dc8-03626e717cca","id":2320499,"name":"CI
      Account"},"metrics":["system.net.bytes_rcvd"],"notifications":[],"muted_until_ts":null,"query":"avg(last_5m):sum:system.net.bytes_rcvd{host:host0}
      > 100","id":35325185,"last_triggered_ts":null,"name":"java-monitorGetErrorsTest-local-1620843966","tags":["frontend","app:webserver"],"org_id":321813,"priority":null,"overall_state_modified":1620844096,"restricted_roles":[],"type":"metric
      alert"},{"status":"No Data","scopes":["host:host0"],"classification":"metric","creator":{"handle":"9919ec9b-ebc7-49ee-8dc8-03626e717cca","id":2320499,"name":"CI
      Account"},"metrics":["system.net.bytes_rcvd"],"notifications":[],"muted_until_ts":null,"query":"avg(last_5m):sum:system.net.bytes_rcvd{host:host0}
      > 100","id":35676553,"last_triggered_ts":null,"name":"java-historyGetSLOErrorsTest-64695-1621420747","tags":[],"org_id":321813,"priority":null,"overall_state_modified":1621420773,"restricted_roles":[],"type":"metric
      alert"},{"status":"No Data","scopes":[],"classification":"synthetics","creator":{"handle":"nicholas.muesch@datadoghq.com","id":1379811,"name":"Nicholas
      Muesch"},"metrics":[],"notifications":[],"muted_until_ts":null,"query":"no_query","id":25720412,"last_triggered_ts":null,"name":"[Synthetics]
      go-TestMonitorSyntheticsGet-32164-1605312658","tags":["testing:api","check_type:api","probe_dc:aws:us-east-2","check_status:live"],"org_id":321813,"priority":null,"overall_state_modified":null,"restricted_roles":[],"type":"synthetics
      alert"},{"status":"No Data","scopes":[],"classification":"synthetics","creator":{"handle":"frog@datadoghq.com","name":"frog@datadoghq.com","id":{"handle":"frog@datadoghq.com","id":1445416,"name":null}},"metrics":[],"notifications":[],"muted_until_ts":null,"query":"no_query","id":59653374,"last_triggered_ts":null,"name":"[Synthetics]
      Example-Create_a_browser_test_returns_OK_Returns_the_created_test_details_response_1641382929","tags":["check_status:paused","probe_dc:aws:us-east-2","testing:browser","check_type:browser"],"org_id":321813,"priority":null,"overall_state_modified":1641383035,"restricted_roles":[],"type":"synthetics
      alert"}],"metadata":{"total_count":199,"page_count":7,"page":0,"per_page":30}}'
    code: 200
    duration: ''
    headers:
      Content-Type:
      - application/json
    status: 200 OK
version: 1
