interactions:
- request:
    body: ''
    form: {}
    headers:
      Accept:
      - application/json
    method: GET
    url: https://api.datadoghq.com/api/v1/monitor/groups/search
  response:
    body: '{"counts":{"status":[{"count":196,"name":"Alert"},{"count":123,"name":"OK"}],"muted":[{"count":319,"name":false}],"tag":[{"count":195,"name":"check_status:live"},{"count":192,"name":"probe_dc:aws:us-east-2"},{"count":192,"name":"testing:api"},{"count":114,"name":"check_type:api"},{"count":27,"name":"check_type:api-udp"},{"count":27,"name":"check_type:api-websocket"},{"count":24,"name":"check_type:api-multi"},{"count":22,"name":"env:ci"},{"count":3,"name":"check_type:api-icmp"},{"count":3,"name":"client:go"},{"count":3,"name":"probe_dc:aws:ap-northeast-1"},{"count":3,"name":"test"},{"count":1,"name":"log"},{"count":1,"name":"terraform"},{"count":1,"name":"test:examplecheckifamonitorcanbedeletedreturnsokresponse1637578686"},{"count":1,"name":"test:examplecheckifamonitorcanbedeletedreturnsokresponse1637578811"},{"count":1,"name":"test:examplecheckifamonitorcanbedeletedreturnsokresponse1637578841"},{"count":1,"name":"test:examplegetamonitorsdetailsreturnsokresponse1640441498"},{"count":1,"name":"test:examplescheduleamonitordowntimereturnsokresponse1640441496"},{"count":1,"name":"test:testcreateanewdashboardwithalertvaluewidget1641382634"},{"count":1,"name":"test:testgocheckifamonitorcanbedeletedreturnsokresponse1639045979"},{"count":1,"name":"test:testgoeditamonitorreturnsokresponse1639046265"},{"count":1,"name":"test:testgogetamonitorsdetailsreturnsokresponse1639046265"},{"count":1,"name":"test:testgoscheduleamonitordowntimereturnsokresponse1639045977"},{"count":1,"name":"test:testpythoncheckifamonitorcanbedeletedreturnsokresponse1638987034"},{"count":1,"name":"test:testpythoncheckifamonitorcanbedeletedreturnsokresponse1639137875"},{"count":1,"name":"test:testpythondeleteamonitorreturnsokresponse1638987038"},{"count":1,"name":"test:testpythoneditamonitorreturnsokresponse1638926914"},{"count":1,"name":"test:testpythoneditamonitorreturnsokresponse1638987036"},{"count":1,"name":"test:testpythongetamonitorsdetailsreturnsokresponse1638987027"},{"count":1,"name":"test:testpythonscheduleamonitordowntimereturnsokresponse1638987043"},{"count":1,"name":"test:testscheduleamonitordowntimereturnsokresponse1640112907"},{"count":1,"name":"test:testtypescripteditamonitorreturnsokresponse1639138007"},{"count":1,"name":"test:testtypescriptgetamonitorsdetailsreturnsokresponse1639138007"},{"count":1,"name":"test:testtypescriptscheduleamonitordowntimereturnsokresponse1640111492"},{"count":1,"name":"test:testtypescriptscheduleamonitordowntimereturnsokresponse1640112725"}],"type":[{"count":195,"name":"synthetics"},{"count":54,"name":"custom"},{"count":39,"name":"metric"},{"count":31,"name":"log"}]},"groups":[{"status":"Alert","last_nodata_ts":0,"env_tags":[],"muted_remaining":null,"muted_until_ts":null,"all_tags":["testing:api","check_type:api","probe_dc:aws:us-east-2","check_status:live"],"monitor_name":"Example-Create_an_API_test_returns_OK_Returns_the_created_test_details_response_1641339729","team_tags":[],"last_triggered_ts":1641339795,"group":"total","downtimes":[],"monitor_id":59586255,"priority":5,"muted":false,"group_tags":["total"]},{"status":"Alert","last_nodata_ts":0,"env_tags":[],"muted_remaining":null,"muted_until_ts":null,"all_tags":["testing:api","check_type:api","probe_dc:aws:us-east-2","check_status:live"],"monitor_name":"Example-Create_an_API_test_returns_OK_Returns_the_created_test_details_response_1641339729","team_tags":[],"last_triggered_ts":1641339795,"group":"aws:us-east-2","downtimes":[],"monitor_id":59586255,"priority":5,"muted":false,"group_tags":["aws:us-east-2"]},{"status":"Alert","last_nodata_ts":0,"env_tags":[],"muted_remaining":null,"muted_until_ts":null,"all_tags":["testing:api","check_type:api","probe_dc:aws:us-east-2","check_status:live"],"monitor_name":"Example-Create_an_API_test_returns_OK_Returns_the_created_test_details_response_1641339729","team_tags":[],"last_triggered_ts":1641339795,"group":"@SYNTHETICS_OVERALL@","downtimes":[],"monitor_id":59586255,"priority":5,"muted":false,"group_tags":["@SYNTHETICS_OVERALL@"]},{"status":"Alert","last_nodata_ts":0,"env_tags":[],"muted_remaining":null,"muted_until_ts":null,"all_tags":["testing:api","check_type:api","probe_dc:aws:us-east-2","check_status:live"],"monitor_name":"Example-Trigger_Synthetics_tests_returns_OK_response_1641339731","team_tags":[],"last_triggered_ts":1641339824,"group":"aws:us-east-2","downtimes":[],"monitor_id":59586284,"priority":5,"muted":false,"group_tags":["aws:us-east-2"]},{"status":"Alert","last_nodata_ts":0,"env_tags":[],"muted_remaining":null,"muted_until_ts":null,"all_tags":["testing:api","check_type:api","probe_dc:aws:us-east-2","check_status:live"],"monitor_name":"Example-Trigger_Synthetics_tests_returns_OK_response_1641339731","team_tags":[],"last_triggered_ts":1641339824,"group":"total","downtimes":[],"monitor_id":59586284,"priority":5,"muted":false,"group_tags":["total"]},{"status":"OK","last_nodata_ts":0,"env_tags":["ci"],"muted_remaining":null,"muted_until_ts":null,"all_tags":["test:testpythoneditamonitorreturnsokresponse1638926914","env:ci"],"monitor_name":"Test-Python-Edit_a_monitor_returns_OK_response-1638926914","team_tags":[],"last_triggered_ts":0,"group":"total","downtimes":[],"monitor_id":56889922,"priority":3,"muted":false,"group_tags":["total"]},{"status":"OK","last_nodata_ts":0,"env_tags":[],"muted_remaining":null,"muted_until_ts":null,"all_tags":[],"monitor_name":"[Synthetic
      Private Locations] {{location_id.name}} is underprovisioned","team_tags":[],"last_triggered_ts":0,"group":"location_id:pl:gcp-integrations-lab-527d63de5764c9fdad65fd1a5ac64a8e","downtimes":[],"monitor_id":52529358,"priority":null,"muted":false,"group_tags":["location_id:pl:gcp-integrations-lab-527d63de5764c9fdad65fd1a5ac64a8e"]},{"status":"Alert","last_nodata_ts":0,"env_tags":[],"muted_remaining":null,"muted_until_ts":null,"all_tags":["testing:api","check_type:api","probe_dc:aws:us-east-2","check_status:live"],"monitor_name":"Example-Trigger_Synthetics_tests_returns_OK_response_1641339731","team_tags":[],"last_triggered_ts":1641339824,"group":"@SYNTHETICS_OVERALL@","downtimes":[],"monitor_id":59586284,"priority":5,"muted":false,"group_tags":["@SYNTHETICS_OVERALL@"]},{"status":"Alert","last_nodata_ts":0,"env_tags":[],"muted_remaining":null,"muted_until_ts":null,"all_tags":["testing:api","check_type:api","probe_dc:aws:us-east-2","check_status:live"],"monitor_name":"Example-Create_an_API_test_returns_OK_Returns_the_created_test_details_response_1641411729","team_tags":[],"last_triggered_ts":1641411818,"group":"aws:us-east-2","downtimes":[],"monitor_id":59701958,"priority":5,"muted":false,"group_tags":["aws:us-east-2"]},{"status":"Alert","last_nodata_ts":0,"env_tags":[],"muted_remaining":null,"muted_until_ts":null,"all_tags":["testing:api","check_type:api","probe_dc:aws:us-east-2","check_status:live"],"monitor_name":"Example-Create_an_API_test_returns_OK_Returns_the_created_test_details_response_1641411729","team_tags":[],"last_triggered_ts":1641411818,"group":"total","downtimes":[],"monitor_id":59701958,"priority":5,"muted":false,"group_tags":["total"]},{"status":"Alert","last_nodata_ts":0,"env_tags":[],"muted_remaining":null,"muted_until_ts":null,"all_tags":["testing:api","check_type:api","probe_dc:aws:us-east-2","check_status:live"],"monitor_name":"Example-Create_an_API_test_returns_OK_Returns_the_created_test_details_response_1641411729","team_tags":[],"last_triggered_ts":1641411818,"group":"@SYNTHETICS_OVERALL@","downtimes":[],"monitor_id":59701958,"priority":5,"muted":false,"group_tags":["@SYNTHETICS_OVERALL@"]},{"status":"OK","last_nodata_ts":0,"env_tags":["ci"],"muted_remaining":null,"muted_until_ts":null,"all_tags":["test:testtypescripteditamonitorreturnsokresponse1639138007","env:ci"],"monitor_name":"Test-Typescript-Edit_a_monitor_returns_OK_response-1639138007","team_tags":[],"last_triggered_ts":0,"group":"total","downtimes":[],"monitor_id":57134512,"priority":3,"muted":false,"group_tags":["total"]},{"status":"OK","last_nodata_ts":0,"env_tags":["ci"],"muted_remaining":null,"muted_until_ts":null,"all_tags":["test:testpythonscheduleamonitordowntimereturnsokresponse1638987043","env:ci"],"monitor_name":"Test-Python-Schedule_a_monitor_downtime_returns_OK_response-1638987043","team_tags":[],"last_triggered_ts":0,"group":"total","downtimes":[],"monitor_id":56957481,"priority":3,"muted":false,"group_tags":["total"]},{"status":"OK","last_nodata_ts":0,"env_tags":["ci"],"muted_remaining":null,"muted_until_ts":null,"all_tags":["env:ci","test:examplecheckifamonitorcanbedeletedreturnsokresponse1637578811"],"monitor_name":"Example-Check_if_a_monitor_can_be_deleted_returns_OK_response_1637578811","team_tags":[],"last_triggered_ts":0,"group":"total","downtimes":[],"monitor_id":55356159,"priority":3,"muted":false,"group_tags":["total"]},{"status":"Alert","last_nodata_ts":0,"env_tags":[],"muted_remaining":null,"muted_until_ts":null,"all_tags":["testing:api","check_type:api","probe_dc:aws:us-east-2","check_status:live"],"monitor_name":"Example-Get_a_synthetics_monitor_s_details_1641339731","team_tags":[],"last_triggered_ts":1641339820,"group":"aws:us-east-2","downtimes":[],"monitor_id":59586280,"priority":5,"muted":false,"group_tags":["aws:us-east-2"]},{"status":"Alert","last_nodata_ts":0,"env_tags":[],"muted_remaining":null,"muted_until_ts":null,"all_tags":["testing:api","check_type:api","probe_dc:aws:us-east-2","check_status:live"],"monitor_name":"Example-Get_a_synthetics_monitor_s_details_1641339731","team_tags":[],"last_triggered_ts":1641339820,"group":"@SYNTHETICS_OVERALL@","downtimes":[],"monitor_id":59586280,"priority":5,"muted":false,"group_tags":["@SYNTHETICS_OVERALL@"]},{"status":"Alert","last_nodata_ts":0,"env_tags":[],"muted_remaining":null,"muted_until_ts":null,"all_tags":["testing:api","check_type:api","probe_dc:aws:us-east-2","check_status:live"],"monitor_name":"Example-Get_a_synthetics_monitor_s_details_1641339731","team_tags":[],"last_triggered_ts":1641339820,"group":"total","downtimes":[],"monitor_id":59586280,"priority":5,"muted":false,"group_tags":["total"]},{"status":"Alert","last_nodata_ts":0,"env_tags":[],"muted_remaining":null,"muted_until_ts":null,"all_tags":["testing:api","check_type:api","probe_dc:aws:us-east-2","check_status:live"],"monitor_name":"Example-Get_a_synthetics_monitor_s_details_1641426133","team_tags":[],"last_triggered_ts":1641426225,"group":"total","downtimes":[],"monitor_id":59771265,"priority":5,"muted":false,"group_tags":["total"]},{"status":"Alert","last_nodata_ts":0,"env_tags":[],"muted_remaining":null,"muted_until_ts":null,"all_tags":["testing:api","check_type:api","probe_dc:aws:us-east-2","check_status:live"],"monitor_name":"Example-Get_a_synthetics_monitor_s_details_1641426133","team_tags":[],"last_triggered_ts":1641426225,"group":"@SYNTHETICS_OVERALL@","downtimes":[],"monitor_id":59771265,"priority":5,"muted":false,"group_tags":["@SYNTHETICS_OVERALL@"]},{"status":"Alert","last_nodata_ts":0,"env_tags":[],"muted_remaining":null,"muted_until_ts":null,"all_tags":["testing:api","check_type:api","probe_dc:aws:us-east-2","check_status:live"],"monitor_name":"Example-Get_a_synthetics_monitor_s_details_1641426133","team_tags":[],"last_triggered_ts":1641426225,"group":"aws:us-east-2","downtimes":[],"monitor_id":59771265,"priority":5,"muted":false,"group_tags":["aws:us-east-2"]},{"status":"Alert","last_nodata_ts":0,"env_tags":[],"muted_remaining":null,"muted_until_ts":null,"all_tags":["testing:api","check_type:api-websocket","probe_dc:aws:us-east-2","check_status:live"],"monitor_name":"Example-Create_an_API_test_with_WEBSOCKET_subtype_returns_OK_Returns_the_created_test_details_response_1641310927","team_tags":[],"last_triggered_ts":1641311003,"group":"@SYNTHETICS_OVERALL@","downtimes":[],"monitor_id":59417123,"priority":5,"muted":false,"group_tags":["@SYNTHETICS_OVERALL@"]},{"status":"Alert","last_nodata_ts":0,"env_tags":[],"muted_remaining":null,"muted_until_ts":null,"all_tags":["testing:api","check_type:api-websocket","probe_dc:aws:us-east-2","check_status:live"],"monitor_name":"Example-Create_an_API_test_with_WEBSOCKET_subtype_returns_OK_Returns_the_created_test_details_response_1641310927","team_tags":[],"last_triggered_ts":1641311003,"group":"total","downtimes":[],"monitor_id":59417123,"priority":5,"muted":false,"group_tags":["total"]},{"status":"Alert","last_nodata_ts":0,"env_tags":[],"muted_remaining":null,"muted_until_ts":null,"all_tags":["testing:api","check_type:api-websocket","probe_dc:aws:us-east-2","check_status:live"],"monitor_name":"Example-Create_an_API_test_with_WEBSOCKET_subtype_returns_OK_Returns_the_created_test_details_response_1641310927","team_tags":[],"last_triggered_ts":1641311003,"group":"aws:us-east-2","downtimes":[],"monitor_id":59417123,"priority":5,"muted":false,"group_tags":["aws:us-east-2"]},{"status":"Alert","last_nodata_ts":0,"env_tags":[],"muted_remaining":null,"muted_until_ts":null,"all_tags":["testing:api","check_type:api","probe_dc:aws:us-east-2","check_status:live"],"monitor_name":"Test-Edit_an_API_test_returns_OK_response-1641382542","team_tags":[],"last_triggered_ts":1641382576,"group":"total","downtimes":[],"monitor_id":59653156,"priority":5,"muted":false,"group_tags":["total"]},{"status":"Alert","last_nodata_ts":0,"env_tags":[],"muted_remaining":null,"muted_until_ts":null,"all_tags":["testing:api","check_type:api","probe_dc:aws:us-east-2","check_status:live"],"monitor_name":"Test-Edit_an_API_test_returns_OK_response-1641382542","team_tags":[],"last_triggered_ts":1641382576,"group":"@SYNTHETICS_OVERALL@","downtimes":[],"monitor_id":59653156,"priority":5,"muted":false,"group_tags":["@SYNTHETICS_OVERALL@"]},{"status":"Alert","last_nodata_ts":0,"env_tags":[],"muted_remaining":null,"muted_until_ts":null,"all_tags":["testing:api","check_type:api","probe_dc:aws:us-east-2","check_status:live"],"monitor_name":"Test-Edit_an_API_test_returns_OK_response-1641382542","team_tags":[],"last_triggered_ts":1641382576,"group":"aws:us-east-2","downtimes":[],"monitor_id":59653156,"priority":5,"muted":false,"group_tags":["aws:us-east-2"]},{"status":"OK","last_nodata_ts":0,"env_tags":[],"muted_remaining":null,"muted_until_ts":null,"all_tags":[],"monitor_name":"tf-TestAccDatadogMonitorJSONBasic-83207-1638923106","team_tags":[],"last_triggered_ts":0,"group":"host:compute-0","downtimes":[],"monitor_id":56886190,"priority":null,"muted":false,"group_tags":["host:compute-0"]},{"status":"OK","last_nodata_ts":0,"env_tags":[],"muted_remaining":null,"muted_until_ts":null,"all_tags":[],"monitor_name":"tf-TestAccDatadogMonitorJSONBasic-83207-1638923106","team_tags":[],"last_triggered_ts":0,"group":"host:master-0","downtimes":[],"monitor_id":56886190,"priority":null,"muted":false,"group_tags":["host:master-0"]},{"status":"OK","last_nodata_ts":0,"env_tags":[],"muted_remaining":null,"muted_until_ts":null,"all_tags":[],"monitor_name":"tf-TestAccDatadogMonitorJSONBasic-83207-1638923106","team_tags":[],"last_triggered_ts":0,"group":"host:backup-restore-0","downtimes":[],"monitor_id":56886190,"priority":null,"muted":false,"group_tags":["host:backup-restore-0"]},{"status":"OK","last_nodata_ts":0,"env_tags":[],"muted_remaining":null,"muted_until_ts":null,"all_tags":[],"monitor_name":"tf-TestAccDatadogMonitorJSONBasic-83207-1638923106","team_tags":[],"last_triggered_ts":0,"group":"host:pks-db-0","downtimes":[],"monitor_id":56886190,"priority":null,"muted":false,"group_tags":["host:pks-db-0"]}],"metadata":{"total_count":319,"page_count":11,"page":0,"per_page":30}}'
    code: 200
    duration: ''
    headers:
      Content-Type:
      - application/json
    status: 200 OK
version: 1
