---
version: 1
interactions:
- request:
    body: |
      {"data":{"attributes":{"name":"go-Feature_Incident_Teams-Scenario_Get_a_list_of_all_incident_teams_returns__OK__response-local-1607022734"},"type":"teams"}}
    form: {}
    headers:
      Accept:
      - application/json
      Content-Type:
      - application/json
      Dd-Operation-Id:
      - CreateIncidentTeam
      User-Agent:
      - datadog-api-client-go/1.0.0-beta.11 (go go1.15.5; os darwin; arch amd64)
      X-Datadog-Parent-Id:
      - "4869155948864111066"
      X-Datadog-Sampling-Priority:
      - "1"
      X-Datadog-Trace-Id:
      - "4445342550124326720"
    url: https://api.datadoghq.com/api/v2/teams
    method: POST
  response:
    body: '{"included":[{"type":"users","id":"3ad549bf-eba0-11e9-a77a-0705486660d0","attributes":{"name":null,"handle":"frog@datadoghq.com","created_at":"2019-10-02T08:15:39.795051+00:00","email":"frog@datadoghq.com","icon":"https://secure.gravatar.com/avatar/28a16dfe36e73b60c1d55872cb0f1172?s=48&d=retro","title":null,"verified":true,"service_account":false,"disabled":false,"allowed_login_methods":[],"status":"Active"},"relationships":{"org":{"data":{"type":"orgs","id":"4dee724d-00cc-11ea-a77b-570c9d03c6c5"}}}}],"data":{"type":"teams","id":"16294555-0cbe-5e95-b948-d0776a940986","attributes":{"name":"go-Feature_Incident_Teams-Scenario_Get_a_list_of_all_incident_teams_returns__OK__response-local-1607022734","created":"2020-12-03T19:12:14.341717+00:00","modified":"2020-12-03T19:12:14.341717+00:00"},"relationships":{"last_modified_by":{"data":{"type":"users","id":"3ad549bf-eba0-11e9-a77a-0705486660d0"}},"created_by":{"data":{"type":"users","id":"3ad549bf-eba0-11e9-a77a-0705486660d0"}}}}}'
    headers:
      Cache-Control:
      - no-cache
      Connection:
      - keep-alive
      Content-Length:
      - "987"
      Content-Type:
      - application/json
      Date:
      - Thu, 03 Dec 2020 19:12:14 GMT
      Dd-Pool:
      - dogweb
      Pragma:
      - no-cache
      Set-Cookie:
      - DD-PSHARD=233; Max-Age=604800; Path=/; expires=Thu, 10-Dec-2020 19:12:14 GMT;
        secure; HttpOnly
      Strict-Transport-Security:
      - max-age=15724800;
      X-Content-Type-Options:
      - nosniff
      X-Dd-Debug:
      - mjjix3i7KxHakJGjOSXbyjGLp+IPNWPrPaCVopgkuqm46lk1b+kLivuxRokDQC1N
      X-Dd-Version:
      - "35.3472485"
      X-Frame-Options:
      - SAMEORIGIN
      X-Ratelimit-Limit:
      - "12000"
      X-Ratelimit-Period:
      - "60"
      X-Ratelimit-Remaining:
      - "11999"
      X-Ratelimit-Reset:
      - "46"
    status: 201 Created
    code: 201
    duration: ""
- request:
    body: ""
    form: {}
    headers:
      Accept:
      - application/json
      Dd-Operation-Id:
      - ListIncidentTeams
      User-Agent:
      - datadog-api-client-go/1.0.0-beta.11 (go go1.15.5; os darwin; arch amd64)
      X-Datadog-Parent-Id:
      - "2726070120315970002"
      X-Datadog-Sampling-Priority:
      - "1"
      X-Datadog-Trace-Id:
      - "4445342550124326720"
    url: https://api.datadoghq.com/api/v2/teams?filter=go-Feature_Incident_Teams-Scenario_Get_a_list_of_all_incident_teams_returns__OK__response-local-1607022734
    method: GET
  response:
    body: '{"meta":{"sort":"ASC","pagination":{"total":442,"size":1,"next_offset":1,"offset":0},"total":442},"data":[{"type":"teams","id":"16294555-0cbe-5e95-b948-d0776a940986","attributes":{"name":"go-Feature_Incident_Teams-Scenario_Get_a_list_of_all_incident_teams_returns__OK__response-local-1607022734","created":"2020-12-03T19:12:14.341717+00:00","modified":"2020-12-03T19:12:14.341717+00:00"},"relationships":{"last_modified_by":{"data":{"type":"users","id":"3ad549bf-eba0-11e9-a77a-0705486660d0"}},"created_by":{"data":{"type":"users","id":"3ad549bf-eba0-11e9-a77a-0705486660d0"}}}}]}'
    headers:
      Cache-Control:
      - no-cache
      Connection:
      - keep-alive
      Content-Type:
      - application/json
      Date:
      - Thu, 03 Dec 2020 19:12:14 GMT
      Dd-Pool:
      - dogweb
      Pragma:
      - no-cache
      Set-Cookie:
      - DD-PSHARD=233; Max-Age=604800; Path=/; expires=Thu, 10-Dec-2020 19:12:14 GMT;
        secure; HttpOnly
      Strict-Transport-Security:
      - max-age=15724800;
      Vary:
      - Accept-Encoding
      X-Content-Type-Options:
      - nosniff
      X-Dd-Debug:
      - lgQawiZEOFHj/SKplEcqOwzaMI6OQtdSQ9dotiTxYUar2ksXhijPkw9yrBoSKHNa
      X-Dd-Version:
      - "35.3472485"
      X-Frame-Options:
      - SAMEORIGIN
      X-Ratelimit-Limit:
      - "12000"
      X-Ratelimit-Period:
      - "60"
      X-Ratelimit-Remaining:
      - "11999"
      X-Ratelimit-Reset:
      - "46"
    status: 200 OK
    code: 200
    duration: ""
- request:
    body: ""
    form: {}
    headers:
      Accept:
      - application/json
      Dd-Operation-Id:
      - DeleteIncidentTeam
      User-Agent:
      - datadog-api-client-go/1.0.0-beta.11 (go go1.15.5; os darwin; arch amd64)
      X-Datadog-Parent-Id:
      - "6434287837599913658"
      X-Datadog-Sampling-Priority:
      - "1"
      X-Datadog-Trace-Id:
      - "4445342550124326720"
    url: https://api.datadoghq.com/api/v2/teams/16294555-0cbe-5e95-b948-d0776a940986
    method: DELETE
  response:
    body: ""
    headers:
      Cache-Control:
      - no-cache
      Connection:
      - keep-alive
      Content-Length:
      - "0"
      Content-Type:
      - application/json
      Date:
      - Thu, 03 Dec 2020 19:12:14 GMT
      Dd-Pool:
      - dogweb
      Pragma:
      - no-cache
      Set-Cookie:
      - DD-PSHARD=233; Max-Age=604800; Path=/; expires=Thu, 10-Dec-2020 19:12:14 GMT;
        secure; HttpOnly
      Strict-Transport-Security:
      - max-age=15724800;
      X-Content-Type-Options:
      - nosniff
      X-Dd-Debug:
      - czEVy5beKXV4pQAZ5xftzVoEe/6sl5mAUrgslod1oQM8E1r6UMNK9mDY9umj8H+Q
      X-Dd-Version:
      - "35.3472485"
      X-Frame-Options:
      - SAMEORIGIN
      X-Ratelimit-Limit:
      - "12000"
      X-Ratelimit-Period:
      - "60"
      X-Ratelimit-Remaining:
      - "11999"
      X-Ratelimit-Reset:
      - "46"
    status: 204 No Content
    code: 204
    duration: ""
