---
version: 1
interactions:
- request:
    body: |
      {"data":{"attributes":{"name":"Test-Get_a_list_of_all_incident_services_returns_OK_response-1618220973"},"type":"services"}}
    form: {}
    headers:
      Accept:
      - application/json
      Content-Type:
      - application/json
      Dd-Operation-Id:
      - CreateIncidentService
      User-Agent:
      - datadog-api-client-go/1.0.0-beta.19+dev (go go1.15.7; os darwin; arch amd64)
      X-Datadog-Parent-Id:
      - "8748399511756805226"
      X-Datadog-Sampling-Priority:
      - "1"
      X-Datadog-Trace-Id:
      - "3387363673697637275"
    url: https://api.datadoghq.com/api/v2/services
    method: POST
  response:
    body: '{"included":[{"type":"users","id":"3ad549bf-eba0-11e9-a77a-0705486660d0","attributes":{"name":null,"handle":"frog@datadoghq.com","created_at":"2019-10-02T08:15:39.795051+00:00","modified_at":"2020-06-15T12:33:12.884459+00:00","email":"frog@datadoghq.com","icon":"https://secure.gravatar.com/avatar/28a16dfe36e73b60c1d55872cb0f1172?s=48&d=retro","title":null,"verified":true,"service_account":false,"disabled":false,"allowed_login_methods":[],"status":"Active"},"relationships":{"org":{"data":{"type":"orgs","id":"4dee724d-00cc-11ea-a77b-570c9d03c6c5"}}}}],"data":{"type":"services","id":"8cf50aac-caba-592a-9516-b8fceeb3adb0","attributes":{"name":"Test-Get_a_list_of_all_incident_services_returns_OK_response-1618220973","created":"2021-04-12T09:49:33.280091+00:00","modified":"2021-04-12T09:49:33.280091+00:00"},"relationships":{"last_modified_by":{"data":{"type":"users","id":"3ad549bf-eba0-11e9-a77a-0705486660d0"}},"created_by":{"data":{"type":"users","id":"3ad549bf-eba0-11e9-a77a-0705486660d0"}}}}}'
    headers:
      Cache-Control:
      - no-cache
      Connection:
      - keep-alive
      Content-Length:
      - "1004"
      Content-Type:
      - application/json
      Date:
      - Mon, 12 Apr 2021 09:49:33 GMT
      Pragma:
      - no-cache
      Strict-Transport-Security:
      - max-age=15724800;
      X-Content-Type-Options:
      - nosniff
      X-Dd-Version:
      - "35.4287331"
      X-Frame-Options:
      - SAMEORIGIN
      X-Ratelimit-Limit:
      - "100"
      X-Ratelimit-Period:
      - "60"
      X-Ratelimit-Remaining:
      - "97"
      X-Ratelimit-Reset:
      - "27"
    status: 201 Created
    code: 201
    duration: ""
- request:
    body: ""
    form: {}
    headers:
      Accept:
      - application/json
      Dd-Operation-Id:
      - ListIncidentServices
      User-Agent:
      - datadog-api-client-go/1.0.0-beta.19+dev (go go1.15.7; os darwin; arch amd64)
      X-Datadog-Parent-Id:
      - "2299555771928587656"
      X-Datadog-Sampling-Priority:
      - "1"
      X-Datadog-Trace-Id:
      - "3387363673697637275"
    url: https://api.datadoghq.com/api/v2/services?filter=Test-Get_a_list_of_all_incident_services_returns_OK_response-1618220973
    method: GET
  response:
    body: '{"meta":{"sort":"ASC","pagination":{"total":7459,"size":1,"next_offset":1,"offset":0},"total":7459},"data":[{"type":"services","id":"8cf50aac-caba-592a-9516-b8fceeb3adb0","attributes":{"name":"Test-Get_a_list_of_all_incident_services_returns_OK_response-1618220973","created":"2021-04-12T09:49:33.280091+00:00","modified":"2021-04-12T09:49:33.280091+00:00"},"relationships":{"last_modified_by":{"data":{"type":"users","id":"3ad549bf-eba0-11e9-a77a-0705486660d0"}},"created_by":{"data":{"type":"users","id":"3ad549bf-eba0-11e9-a77a-0705486660d0"}}}}]}'
    headers:
      Cache-Control:
      - no-cache
      Connection:
      - keep-alive
      Content-Type:
      - application/json
      Date:
      - Mon, 12 Apr 2021 09:49:33 GMT
      Pragma:
      - no-cache
      Strict-Transport-Security:
      - max-age=15724800;
      Vary:
      - Accept-Encoding
      X-Content-Type-Options:
      - nosniff
      X-Dd-Version:
      - "35.4287331"
      X-Frame-Options:
      - SAMEORIGIN
      X-Ratelimit-Limit:
      - "100"
      X-Ratelimit-Period:
      - "60"
      X-Ratelimit-Remaining:
      - "99"
      X-Ratelimit-Reset:
      - "27"
    status: 200 OK
    code: 200
    duration: ""
- request:
    body: ""
    form: {}
    headers:
      Accept:
      - application/json
      Dd-Operation-Id:
      - DeleteIncidentService
      User-Agent:
      - datadog-api-client-go/1.0.0-beta.19+dev (go go1.15.7; os darwin; arch amd64)
      X-Datadog-Parent-Id:
      - "8979382515919731848"
      X-Datadog-Sampling-Priority:
      - "1"
      X-Datadog-Trace-Id:
      - "3387363673697637275"
    url: https://api.datadoghq.com/api/v2/services/8cf50aac-caba-592a-9516-b8fceeb3adb0
    method: DELETE
  response:
    body: ""
    headers:
      Cache-Control:
      - no-cache
      Connection:
      - keep-alive
      Content-Length:
      - "0"
      Content-Type:
      - application/json
      Date:
      - Mon, 12 Apr 2021 09:49:33 GMT
      Pragma:
      - no-cache
      Strict-Transport-Security:
      - max-age=15724800;
      X-Content-Type-Options:
      - nosniff
      X-Dd-Version:
      - "35.4287331"
      X-Frame-Options:
      - SAMEORIGIN
      X-Ratelimit-Limit:
      - "100"
      X-Ratelimit-Period:
      - "60"
      X-Ratelimit-Remaining:
      - "96"
      X-Ratelimit-Reset:
      - "27"
    status: 204 No Content
    code: 204
    duration: ""
