---
version: 1
interactions:
- request:
    body: |
      {"data":{"attributes":{"name":"go-Feature_Incident_Services-Scenario_Get_a_list_of_all_incident_services_returns__OK__response-local-1607022730"},"type":"services"}}
    form: {}
    headers:
      Accept:
      - application/json
      Content-Type:
      - application/json
      Dd-Operation-Id:
      - CreateIncidentService
      User-Agent:
      - datadog-api-client-go/1.0.0-beta.11 (go go1.15.5; os darwin; arch amd64)
      X-Datadog-Parent-Id:
      - "8795446037850994668"
      X-Datadog-Sampling-Priority:
      - "1"
      X-Datadog-Trace-Id:
      - "3124092377937131387"
    url: https://api.datadoghq.com/api/v2/services
    method: POST
  response:
    body: '{"included":[{"type":"users","id":"3ad549bf-eba0-11e9-a77a-0705486660d0","attributes":{"name":null,"handle":"frog@datadoghq.com","created_at":"2019-10-02T08:15:39.795051+00:00","email":"frog@datadoghq.com","icon":"https://secure.gravatar.com/avatar/28a16dfe36e73b60c1d55872cb0f1172?s=48&d=retro","title":null,"verified":true,"service_account":false,"disabled":false,"allowed_login_methods":[],"status":"Active"},"relationships":{"org":{"data":{"type":"orgs","id":"4dee724d-00cc-11ea-a77b-570c9d03c6c5"}}}}],"data":{"type":"services","id":"457d4c38-0468-556b-b440-1fc2264cf4fe","attributes":{"name":"go-Feature_Incident_Services-Scenario_Get_a_list_of_all_incident_services_returns__OK__response-local-1607022730","created":"2020-12-03T19:12:11.502519+00:00","modified":"2020-12-03T19:12:11.502519+00:00"},"relationships":{"last_modified_by":{"data":{"type":"users","id":"3ad549bf-eba0-11e9-a77a-0705486660d0"}},"created_by":{"data":{"type":"users","id":"3ad549bf-eba0-11e9-a77a-0705486660d0"}}}}}'
    headers:
      Cache-Control:
      - no-cache
      Connection:
      - keep-alive
      Content-Length:
      - "996"
      Content-Type:
      - application/json
      Date:
      - Thu, 03 Dec 2020 19:12:11 GMT
      Dd-Pool:
      - dogweb
      Pragma:
      - no-cache
      Set-Cookie:
      - DD-PSHARD=233; Max-Age=604800; Path=/; expires=Thu, 10-Dec-2020 19:12:11 GMT;
        secure; HttpOnly
      Strict-Transport-Security:
      - max-age=15724800;
      X-Content-Type-Options:
      - nosniff
      X-Dd-Debug:
      - XH13bHMKtoQVJueISAFCWP0HSHfKJRB7S49EcUHZy7wuPUHvZ/XfTy/P1yRgU1Db
      X-Dd-Version:
      - "35.3472485"
      X-Frame-Options:
      - SAMEORIGIN
      X-Ratelimit-Limit:
      - "12000"
      X-Ratelimit-Period:
      - "60"
      X-Ratelimit-Remaining:
      - "11999"
      X-Ratelimit-Reset:
      - "49"
    status: 201 Created
    code: 201
    duration: ""
- request:
    body: ""
    form: {}
    headers:
      Accept:
      - application/json
      Dd-Operation-Id:
      - ListIncidentServices
      User-Agent:
      - datadog-api-client-go/1.0.0-beta.11 (go go1.15.5; os darwin; arch amd64)
      X-Datadog-Parent-Id:
      - "4472837793631485311"
      X-Datadog-Sampling-Priority:
      - "1"
      X-Datadog-Trace-Id:
      - "3124092377937131387"
    url: https://api.datadoghq.com/api/v2/services?filter=go-Feature_Incident_Services-Scenario_Get_a_list_of_all_incident_services_returns__OK__response-local-1607022730
    method: GET
  response:
    body: '{"meta":{"sort":"ASC","pagination":{"total":6116,"size":1,"next_offset":1,"offset":0},"total":6116},"data":[{"type":"services","id":"457d4c38-0468-556b-b440-1fc2264cf4fe","attributes":{"name":"go-Feature_Incident_Services-Scenario_Get_a_list_of_all_incident_services_returns__OK__response-local-1607022730","created":"2020-12-03T19:12:11.502519+00:00","modified":"2020-12-03T19:12:11.502519+00:00"},"relationships":{"last_modified_by":{"data":{"type":"users","id":"3ad549bf-eba0-11e9-a77a-0705486660d0"}},"created_by":{"data":{"type":"users","id":"3ad549bf-eba0-11e9-a77a-0705486660d0"}}}}]}'
    headers:
      Cache-Control:
      - no-cache
      Connection:
      - keep-alive
      Content-Type:
      - application/json
      Date:
      - Thu, 03 Dec 2020 19:12:11 GMT
      Dd-Pool:
      - dogweb
      Pragma:
      - no-cache
      Set-Cookie:
      - DD-PSHARD=233; Max-Age=604800; Path=/; expires=Thu, 10-Dec-2020 19:12:11 GMT;
        secure; HttpOnly
      Strict-Transport-Security:
      - max-age=15724800;
      Vary:
      - Accept-Encoding
      X-Content-Type-Options:
      - nosniff
      X-Dd-Debug:
      - xX5B3VEUzj/lf2mLoLzvYApJQ8Milw+OjpcorJhw8mNeFxMv2SeFpmruGZDusq8/
      X-Dd-Version:
      - "35.3472485"
      X-Frame-Options:
      - SAMEORIGIN
      X-Ratelimit-Limit:
      - "12000"
      X-Ratelimit-Period:
      - "60"
      X-Ratelimit-Remaining:
      - "11999"
      X-Ratelimit-Reset:
      - "49"
    status: 200 OK
    code: 200
    duration: ""
- request:
    body: ""
    form: {}
    headers:
      Accept:
      - application/json
      Dd-Operation-Id:
      - DeleteIncidentService
      User-Agent:
      - datadog-api-client-go/1.0.0-beta.11 (go go1.15.5; os darwin; arch amd64)
      X-Datadog-Parent-Id:
      - "502052632672969616"
      X-Datadog-Sampling-Priority:
      - "1"
      X-Datadog-Trace-Id:
      - "3124092377937131387"
    url: https://api.datadoghq.com/api/v2/services/457d4c38-0468-556b-b440-1fc2264cf4fe
    method: DELETE
  response:
    body: ""
    headers:
      Cache-Control:
      - no-cache
      Connection:
      - keep-alive
      Content-Length:
      - "0"
      Content-Type:
      - application/json
      Date:
      - Thu, 03 Dec 2020 19:12:12 GMT
      Dd-Pool:
      - dogweb
      Pragma:
      - no-cache
      Set-Cookie:
      - DD-PSHARD=233; Max-Age=604800; Path=/; expires=Thu, 10-Dec-2020 19:12:11 GMT;
        secure; HttpOnly
      Strict-Transport-Security:
      - max-age=15724800;
      X-Content-Type-Options:
      - nosniff
      X-Dd-Debug:
      - amxMFAqiSVjNyNv9bH0oCnBEjAVk4yOIMrMQTyRWQ0WFa2JUcjQXHejBMO8Fj7RQ
      X-Dd-Version:
      - "35.3472485"
      X-Frame-Options:
      - SAMEORIGIN
      X-Ratelimit-Limit:
      - "12000"
      X-Ratelimit-Period:
      - "60"
      X-Ratelimit-Remaining:
      - "11999"
      X-Ratelimit-Reset:
      - "48"
    status: 204 No Content
    code: 204
    duration: ""
